{
  "project_info": {
    "project_number": "770056496160",
    "project_id": "airplane-a4a7c",
    "storage_bucket": "airplane-a4a7c.appspot.com"
  },
  "client": [
    {
      "client_info": {
        "mobilesdk_app_id": "1:770056496160:android:2f6adeb601b3bb40308845",
        "android_client_info": {
          "package_name": "com.almardiyah.airplane"
        }
      },
      "oauth_client": [
        {
          "client_id": "770056496160-i05pv4ko5t0ambm39t0ek5cl6nuvbrvj.apps.googleusercontent.com",
          "client_type": 3
        }
      ],
      "api_key": [
        {
          "current_key": "AIzaSyDpXLFgJ73YpN1axvv-otJHKdX89CXb6KQ"
        }
      ],
      "services": {
        "appinvite_service": {
          "other_platform_oauth_client": [
            {
              "client_id": "770056496160-i05pv4ko5t0ambm39t0ek5cl6nuvbrvj.apps.googleusercontent.com",
              "client_type": 3
            }
          ]
        }
      }
    }
  ],
  "configuration_version": "1"
}